fuentes/sum1bit/simulacion/sumador1bit_tb.vcd
$date
  Fri May 26 18:04:06 2023
$end
$version
  GHDL v0
$end
$timescale
  1 fs
$end
$scope module standard $end
$upscope $end
$scope module std_logic_1164 $end
$upscope $end
$scope module numeric_std $end
$upscope $end
$scope module sumador1bit_tb $end
$var reg 1 ! a_tb $end
$var reg 1 " b_tb $end
$var reg 1 # ci_tb $end
$var reg 1 $ s_o_tb $end
$var reg 1 % c_o_tb $end
$scope module dut $end
$var reg 1 & a_in $end
$var reg 1 ' b_in $end
$var reg 1 ( c_in $end
$var reg 1 ) c_out $end
$var reg 1 * s_out $end
$upscope $end
$upscope $end
$enddefinitions $end
#0
0!
0"
0#
0$
0%
0&
0'
0(
0)
0*
#10000000
1!
1$
1&
1*
#20000000
0!
1"
0&
1'
#30000000
1!
0$
1%
1&
1)
0*
#40000000
0!
0"
1#
1$
0%
0&
0'
1(
0)
1*
#50000000
1!
0$
1%
1&
1)
0*
#60000000
0!
1"
0&
1'
#70000000
1!
1$
1&
1*
#80000000
0!
0"
0#
0$
0%
0&
0'
0(
0)
0*
#90000000
1!
1$
1&
1*
#100000000
0!
1"
0&
1'
#110000000
1!
0$
1%
1&
1)
0*
#120000000
0!
0"
1#
1$
0%
0&
0'
1(
0)
1*
#130000000
1!
0$
1%
1&
1)
0*
#140000000
0!
1"
0&
1'
#150000000
1!
1$
1&
1*
#160000000
0!
0"
0#
0$
0%
0&
0'
0(
0)
0*
#170000000
1!
1$
1&
1*
#180000000
0!
1"
0&
1'
#190000000
1!
0$
1%
1&
1)
0*
#200000000
0!
0"
1#
1$
0%
0&
0'
1(
0)
1*
#210000000
1!
0$
1%
1&
1)
0*
#220000000
0!
1"
0&
1'
#230000000
1!
1$
1&
1*
#240000000
0!
0"
0#
0$
0%
0&
0'
0(
0)
0*
#250000000
1!
1$
1&
1*
#260000000
0!
1"
0&
1'
#270000000
1!
0$
1%
1&
1)
0*
#280000000
0!
0"
1#
1$
0%
0&
0'
1(
0)
1*
#290000000
1!
0$
1%
1&
1)
0*
#300000000
0!
1"
0&
1'
#310000000
1!
1$
1&
1*
#320000000
0!
0"
0#
0$
0%
0&
0'
0(
0)
0*
#330000000
1!
1$
1&
1*
#340000000
0!
1"
0&
1'
#350000000
1!
0$
1%
1&
1)
0*
#360000000
0!
0"
1#
1$
0%
0&
0'
1(
0)
1*
#370000000
1!
0$
1%
1&
1)
0*
#380000000
0!
1"
0&
1'
#390000000
1!
1$
1&
1*
#400000000
0!
0"
0#
0$
0%
0&
0'
0(
0)
0*
#410000000
1!
1$
1&
1*
#420000000
0!
1"
0&
1'
#430000000
1!
0$
1%
1&
1)
0*
#440000000
0!
0"
1#
1$
0%
0&
0'
1(
0)
1*
#450000000
1!
0$
1%
1&
1)
0*
#460000000
0!
1"
0&
1'
#470000000
1!
1$
1&
1*
#480000000
0!
0"
0#
0$
0%
0&
0'
0(
0)
0*
#490000000
1!
1$
1&
1*
#500000000
0!
1"
0&
1'
#510000000
1!
0$
1%
1&
1)
0*
#520000000
0!
0"
1#
1$
0%
0&
0'
1(
0)
1*
#530000000
1!
0$
1%
1&
1)
0*
#540000000
0!
1"
0&
1'
#550000000
1!
1$
1&
1*
#560000000
0!
0"
0#
0$
0%
0&
0'
0(
0)
0*
#570000000
1!
1$
1&
1*
#580000000
0!
1"
0&
1'
#590000000
1!
0$
1%
1&
1)
0*
#600000000
0!
0"
1#
1$
0%
0&
0'
1(
0)
1*
#610000000
1!
0$
1%
1&
1)
0*
#620000000
0!
1"
0&
1'
#630000000
1!
1$
1&
1*
#640000000
0!
0"
0#
0$
0%
0&
0'
0(
0)
0*
#650000000
1!
1$
1&
1*
#660000000
0!
1"
0&
1'
#670000000
1!
0$
1%
1&
1)
0*
#680000000
0!
0"
1#
1$
0%
0&
0'
1(
0)
1*
#690000000
1!
0$
1%
1&
1)
0*
#700000000
0!
1"
0&
1'
#710000000
1!
1$
1&
1*
#720000000
0!
0"
0#
0$
0%
0&
0'
0(
0)
0*
#730000000
1!
1$
1&
1*
#740000000
0!
1"
0&
1'
#750000000
1!
0$
1%
1&
1)
0*
#760000000
0!
0"
1#
1$
0%
0&
0'
1(
0)
1*
#770000000
1!
0$
1%
1&
1)
0*
#780000000
0!
1"
0&
1'
#790000000
1!
1$
1&
1*
#800000000
0!
0"
0#
0$
0%
0&
0'
0(
0)
0*
#810000000
1!
1$
1&
1*
#820000000
0!
1"
0&
1'
#830000000
1!
0$
1%
1&
1)
0*
#840000000
0!
0"
1#
1$
0%
0&
0'
1(
0)
1*
#850000000
1!
0$
1%
1&
1)
0*
#860000000
0!
1"
0&
1'
#870000000
1!
1$
1&
1*
#880000000
0!
0"
0#
0$
0%
0&
0'
0(
0)
0*
#890000000
1!
1$
1&
1*
#900000000
0!
1"
0&
1'
#910000000
1!
0$
1%
1&
1)
0*
#920000000
0!
0"
1#
1$
0%
0&
0'
1(
0)
1*
#930000000
1!
0$
1%
1&
1)
0*
#940000000
0!
1"
0&
1'
#950000000
1!
1$
1&
1*
#960000000
0!
0"
0#
0$
0%
0&
0'
0(
0)
0*
#970000000
1!
1$
1&
1*
#980000000
0!
1"
0&
1'
#990000000
1!
0$
1%
1&
1)
0*
#1000000000
0!
0"
1#
1$
0%
0&
0'
1(
0)
1*
