fuentes/registroN/simulacion/registroPPNbits_tb.vcd
$date
  Fri May 26 17:29:59 2023
$end
$version
  GHDL v0
$end
$timescale
  1 fs
$end
$scope module standard $end
$upscope $end
$scope module std_logic_1164 $end
$upscope $end
$scope module numeric_std $end
$upscope $end
$scope module registroppnbits_tb $end
$var reg 1 ! clk_tb $end
$var reg 1 " rst_tb $end
$var reg 1 # ena_tb $end
$var reg 5 $ d_tb[4:0] $end
$var reg 5 % q_tb[4:0] $end
$scope module dut $end
$var reg 1 & clk $end
$var reg 1 ' rst $end
$var reg 1 ( ena $end
$var reg 5 ) d[4:0] $end
$var reg 5 * q[4:0] $end
$upscope $end
$upscope $end
$enddefinitions $end
#0
0!
1"
1#
b01100 $
bUUUUU %
0&
1'
1(
b01100 )
bUUUUU *
#10000000
1!
b00000 %
1&
b00000 *
#20000000
0!
0&
#30000000
1!
1&
#40000000
0!
0&
#50000000
1!
1&
#60000000
0!
0&
#70000000
1!
1&
#80000000
0!
0&
#90000000
1!
1&
#100000000
0!
0"
0&
0'
#110000000
1!
b01100 %
1&
b01100 *
#120000000
0!
0&
#130000000
1!
1&
#140000000
0!
0&
#150000000
1!
1&
#160000000
0!
0&
#170000000
1!
1&
#180000000
0!
0&
#190000000
1!
1&
#200000000
0!
0&
#210000000
1!
1&
#220000000
0!
0&
#230000000
1!
1&
#240000000
0!
0&
#250000000
1!
1&
#260000000
0!
0&
#270000000
1!
1&
#280000000
0!
0&
#290000000
1!
1&
#300000000
0!
0&
#310000000
1!
1&
#320000000
0!
0&
#330000000
1!
1&
#340000000
0!
0&
#350000000
1!
1&
#360000000
0!
0&
#370000000
1!
1&
#380000000
0!
0&
#390000000
1!
1&
#400000000
0!
0&
#410000000
1!
1&
#420000000
0!
0&
#430000000
1!
1&
#440000000
0!
0&
#450000000
1!
1&
#460000000
0!
0&
#470000000
1!
1&
#480000000
0!
0&
#490000000
1!
1&
#500000000
0!
0&
#510000000
1!
1&
#520000000
0!
0&
#530000000
1!
1&
#540000000
0!
0&
#550000000
1!
1&
#560000000
0!
0&
#570000000
1!
1&
#580000000
0!
0&
#590000000
1!
1&
#600000000
0!
0#
0&
0(
#610000000
1!
1&
#620000000
0!
0&
#630000000
1!
1&
#640000000
0!
0&
#650000000
1!
1&
#660000000
0!
0&
#670000000
1!
1&
#680000000
0!
0&
#690000000
1!
1&
#700000000
0!
b11110 $
0&
b11110 )
#710000000
1!
1&
#720000000
0!
0&
#730000000
1!
1&
#740000000
0!
0&
#750000000
1!
1&
#760000000
0!
0&
#770000000
1!
1&
#780000000
0!
0&
#790000000
1!
1&
#800000000
0!
1#
0&
1(
#810000000
1!
b11110 %
1&
b11110 *
#820000000
0!
0&
#830000000
1!
1&
#840000000
0!
0&
#850000000
1!
1&
#860000000
0!
0&
#870000000
1!
1&
#880000000
0!
0&
#890000000
1!
1&
#900000000
0!
b01100 $
0&
b01100 )
#910000000
1!
b01100 %
1&
b01100 *
