fuentes/countNmodMbit/simulacion/countNmodMbit_tb.vcd
$date
  Fri Jun 16 17:44:34 2023
$end
$version
  GHDL v0
$end
$timescale
  1 fs
$end
$scope module standard $end
$upscope $end
$scope module std_logic_1164 $end
$upscope $end
$scope module numeric_std $end
$upscope $end
$scope module countnmodmbit_tb $end
$var reg 8 ! q_out_tb[7:0] $end
$var reg 1 " clk $end
$var reg 1 # rst $end
$var reg 1 $ ena_tb $end
$scope module dut $end
$var reg 1 % clk_in $end
$var reg 1 & ena_in $end
$var reg 1 ' rst_in $end
$var reg 8 ( q_out[7:0] $end
$var reg 8 ) inp_count[7:0] $end
$var reg 8 * sal_out[7:0] $end
$var reg 1 + rst_count $end
$var reg 1 , sal_comp $end
$scope module regnpp $end
$var reg 1 - clk $end
$var reg 1 . rst $end
$var reg 1 / ena $end
$var reg 8 0 d[7:0] $end
$var reg 8 1 q[7:0] $end
$upscope $end
$upscope $end
$upscope $end
$enddefinitions $end
#0
bUUUUUUUU !
0"
1#
0$
0%
0&
1'
bUUUUUUUU (
bXXXXXXXX )
bUUUUUUUU *
1+
0,
0-
1.
0/
bXXXXXXXX 0
bUUUUUUUU 1
#10000000
b00000000 !
1"
1%
b00000000 (
b00000001 )
b00000000 *
1-
b00000001 0
b00000000 1
#20000000
0"
0#
0%
0'
0+
0-
0.
#25000000
1$
1&
1/
#30000000
b00000001 !
1"
1%
b00000001 (
b00000010 )
b00000001 *
1-
b00000010 0
b00000001 1
#40000000
0"
0%
0-
#50000000
b00000010 !
1"
1%
b00000010 (
b00000011 )
b00000010 *
1-
b00000011 0
b00000010 1
#60000000
0"
0%
0-
#70000000
b00000011 !
1"
1%
b00000011 (
b00000100 )
b00000011 *
1-
b00000100 0
b00000011 1
#80000000
0"
0%
0-
#90000000
b00000100 !
1"
1%
b00000100 (
b00000101 )
b00000100 *
1-
b00000101 0
b00000100 1
#100000000
0"
0%
0-
#110000000
b00000101 !
1"
1%
b00000101 (
b00000110 )
b00000101 *
1-
b00000110 0
b00000101 1
#120000000
0"
0%
0-
#130000000
b00000110 !
1"
1%
b00000110 (
b00000111 )
b00000110 *
1-
b00000111 0
b00000110 1
#140000000
0"
0%
0-
#150000000
b00000111 !
1"
1%
b00000111 (
b00001000 )
b00000111 *
1-
b00001000 0
b00000111 1
#160000000
0"
0%
0-
#170000000
b00001000 !
1"
1%
b00001000 (
b00001001 )
b00001000 *
1-
b00001001 0
b00001000 1
#180000000
0"
0%
0-
#190000000
b00001001 !
1"
1%
b00001001 (
b00001010 )
b00001001 *
1-
b00001010 0
b00001001 1
#200000000
0"
0%
0-
#210000000
b00001010 !
1"
1%
b00001010 (
b00001011 )
b00001010 *
1-
b00001011 0
b00001010 1
#220000000
0"
0%
0-
#230000000
b00001011 !
1"
1%
b00001011 (
b00001100 )
b00001011 *
1-
b00001100 0
b00001011 1
#240000000
0"
0%
0-
#250000000
b00001100 !
1"
1%
b00001100 (
b00001101 )
b00001100 *
1-
b00001101 0
b00001100 1
#260000000
0"
0%
0-
#270000000
b00001101 !
1"
1%
b00001101 (
b00001110 )
b00001101 *
1-
b00001110 0
b00001101 1
#280000000
0"
0%
0-
#290000000
b00001110 !
1"
1%
b00001110 (
b00001111 )
b00001110 *
1-
b00001111 0
b00001110 1
#300000000
0"
0%
0-
#310000000
b00001111 !
1"
1%
b00001111 (
b00010000 )
b00001111 *
1-
b00010000 0
b00001111 1
#320000000
0"
0%
0-
#330000000
b00010000 !
1"
1%
b00010000 (
b00010001 )
b00010000 *
1-
b00010001 0
b00010000 1
#340000000
0"
0%
0-
#350000000
b00010001 !
1"
1%
b00010001 (
b00010010 )
b00010001 *
1-
b00010010 0
b00010001 1
#360000000
0"
0%
0-
#370000000
b00010010 !
1"
1%
b00010010 (
b00010011 )
b00010010 *
1-
b00010011 0
b00010010 1
#380000000
0"
0%
0-
#390000000
b00010011 !
1"
1%
b00010011 (
b00010100 )
b00010011 *
1-
b00010100 0
b00010011 1
#400000000
0"
0%
0-
#410000000
b00010100 !
1"
1%
b00010100 (
b00010101 )
b00010100 *
1-
b00010101 0
b00010100 1
#420000000
0"
0%
0-
#430000000
b00010101 !
1"
1%
b00010101 (
b00010110 )
b00010101 *
1-
b00010110 0
b00010101 1
#440000000
0"
0%
0-
#450000000
b00010110 !
1"
1%
b00010110 (
b00010111 )
b00010110 *
1-
b00010111 0
b00010110 1
#460000000
0"
0%
0-
#470000000
b00010111 !
1"
1%
b00010111 (
b00011000 )
b00010111 *
1-
b00011000 0
b00010111 1
#480000000
0"
0%
0-
#490000000
b00011000 !
1"
1%
b00011000 (
b00011001 )
b00011000 *
1-
b00011001 0
b00011000 1
#500000000
0"
0%
0-
#510000000
b00011001 !
1"
1%
b00011001 (
b00011010 )
b00011001 *
1-
b00011010 0
b00011001 1
#520000000
0"
0%
0-
#530000000
b00011010 !
1"
1%
b00011010 (
b00011011 )
b00011010 *
1-
b00011011 0
b00011010 1
#540000000
0"
0%
0-
#550000000
b00011011 !
1"
1%
b00011011 (
b00011100 )
b00011011 *
1-
b00011100 0
b00011011 1
#560000000
0"
0%
0-
#570000000
b00011100 !
1"
1%
b00011100 (
b00011101 )
b00011100 *
1-
b00011101 0
b00011100 1
#580000000
0"
0%
0-
#590000000
b00011101 !
1"
1%
b00011101 (
b00011110 )
b00011101 *
1-
b00011110 0
b00011101 1
#600000000
0"
0%
0-
#610000000
b00011110 !
1"
1%
b00011110 (
b00011111 )
b00011110 *
1-
b00011111 0
b00011110 1
#620000000
0"
0%
0-
#630000000
b00011111 !
1"
1%
b00011111 (
b00100000 )
b00011111 *
1-
b00100000 0
b00011111 1
#640000000
0"
0%
0-
#650000000
b00100000 !
1"
1%
b00100000 (
b00100001 )
b00100000 *
1+
1,
1-
1.
b00100001 0
b00100000 1
#660000000
0"
0%
0-
#670000000
b00000000 !
1"
1%
b00000000 (
b00000001 )
b00000000 *
0+
0,
1-
0.
b00000001 0
b00000000 1
#680000000
0"
0%
0-
#690000000
b00000001 !
1"
1%
b00000001 (
b00000010 )
b00000001 *
1-
b00000010 0
b00000001 1
#700000000
0"
0%
0-
#710000000
b00000010 !
1"
1%
b00000010 (
b00000011 )
b00000010 *
1-
b00000011 0
b00000010 1
#720000000
0"
0%
0-
#730000000
b00000011 !
1"
1%
b00000011 (
b00000100 )
b00000011 *
1-
b00000100 0
b00000011 1
#740000000
0"
0%
0-
#750000000
b00000100 !
1"
1%
b00000100 (
b00000101 )
b00000100 *
1-
b00000101 0
b00000100 1
#760000000
0"
0%
0-
#770000000
b00000101 !
1"
1%
b00000101 (
b00000110 )
b00000101 *
1-
b00000110 0
b00000101 1
#780000000
0"
0%
0-
#790000000
b00000110 !
1"
1%
b00000110 (
b00000111 )
b00000110 *
1-
b00000111 0
b00000110 1
#800000000
0"
0%
0-
#810000000
b00000111 !
1"
1%
b00000111 (
b00001000 )
b00000111 *
1-
b00001000 0
b00000111 1
#820000000
0"
0%
0-
#830000000
b00001000 !
1"
1%
b00001000 (
b00001001 )
b00001000 *
1-
b00001001 0
b00001000 1
#840000000
0"
0%
0-
#850000000
b00001001 !
1"
1%
b00001001 (
b00001010 )
b00001001 *
1-
b00001010 0
b00001001 1
#860000000
0"
0%
0-
#870000000
b00001010 !
1"
1%
b00001010 (
b00001011 )
b00001010 *
1-
b00001011 0
b00001010 1
#880000000
0"
0%
0-
#890000000
b00001011 !
1"
1%
b00001011 (
b00001100 )
b00001011 *
1-
b00001100 0
b00001011 1
#900000000
0"
0%
0-
#910000000
b00001100 !
1"
1%
b00001100 (
b00001101 )
b00001100 *
1-
b00001101 0
b00001100 1
#920000000
0"
0%
0-
#930000000
b00001101 !
1"
1%
b00001101 (
b00001110 )
b00001101 *
1-
b00001110 0
b00001101 1
#940000000
0"
0%
0-
#950000000
b00001110 !
1"
1%
b00001110 (
b00001111 )
b00001110 *
1-
b00001111 0
b00001110 1
#960000000
0"
0%
0-
#970000000
b00001111 !
1"
1%
b00001111 (
b00010000 )
b00001111 *
1-
b00010000 0
b00001111 1
#980000000
0"
0%
0-
#990000000
b00010000 !
1"
1%
b00010000 (
b00010001 )
b00010000 *
1-
b00010001 0
b00010000 1
