fuentes/memoria_rom/simulacion/memoria_rom_tb.vcd
$date
  Mon Jun 19 23:19:40 2023
$end
$version
  GHDL v0
$end
$timescale
  1 fs
$end
$scope module standard $end
$upscope $end
$scope module std_logic_1164 $end
$upscope $end
$scope module numeric_std $end
$upscope $end
$scope module memoria_rom_tb $end
$var reg 18 ! q_out_tb[17:0] $end
$var reg 4 " address_tb[3:0] $end
$var reg 1 # clk $end
$var reg 1 $ rst $end
$scope module dut $end
$var reg 4 % address[3:0] $end
$var reg 18 & data_out[17:0] $end
$upscope $end
$upscope $end
$enddefinitions $end
#0
b000000000000000000 !
bUUUU "
0#
0$
bUUUU %
b000000000000000000 &
#10000000
1#
#20000000
0#
#30000000
1#
#40000000
b0000 "
0#
b0000 %
#50000000
1#
#60000000
0#
#70000000
1#
#80000000
b001100100100001111 !
b0001 "
0#
b0001 %
b001100100100001111 &
#90000000
1#
#100000000
0#
#110000000
1#
#120000000
b000111011010110001 !
b0010 "
0#
b0010 %
b000111011010110001 &
#130000000
1#
#140000000
0#
#150000000
1#
#160000000
b000011111010110110 !
b0011 "
0#
b0011 %
b000011111010110110 &
#170000000
1#
#180000000
0#
#190000000
1#
#200000000
b000001111111010101 !
b0100 "
0#
b0100 %
b000001111111010101 &
#210000000
1#
#220000000
0#
#230000000
1#
#240000000
b000000111111111010 !
b0101 "
0#
b0101 %
b000000111111111010 &
#250000000
1#
#260000000
0#
#270000000
1#
#280000000
b000000011111111111 !
b0110 "
0#
b0110 %
b000000011111111111 &
#290000000
1#
#300000000
0#
#310000000
1#
#320000000
b000000001111111111 !
b0111 "
0#
b0111 %
b000000001111111111 &
#330000000
1#
#340000000
0#
#350000000
1#
#360000000
b000000000111111111 !
b1000 "
0#
b1000 %
b000000000111111111 &
#370000000
1#
#380000000
0#
#390000000
1#
#400000000
b000000000011111111 !
b1001 "
0#
b1001 %
b000000000011111111 &
#410000000
1#
#420000000
0#
#430000000
1#
#440000000
b000000000001111111 !
b1010 "
0#
b1010 %
b000000000001111111 &
#450000000
1#
#460000000
0#
#470000000
1#
#480000000
b000000000000111111 !
b1011 "
0#
b1011 %
b000000000000111111 &
#490000000
1#
#500000000
0#
#510000000
1#
#520000000
b000000000000011111 !
b1100 "
0#
b1100 %
b000000000000011111 &
